…
- Donne l’identifiant, le nom et le type de degrés de densité de toutes les communes
du département ’34':

```r
communes_34 <- subset(commune, code_dep == "34")
print(communes_34[c("id_commune", "nom_commune", "type_degres_densite")])
```

```
## # A tibble: 63 x 3
##    id_commune nom_commune  type_degres_densite          
##    <chr>      <chr>        <chr>                        
##  1 34001      Abeilhan     Bourgs ruraux                
##  2 34006      Aigne        Rural a habitat disperse     
##  3 34016      Aumelas      Rural a habitat disperse     
##  4 34018      Autignac     Bourgs ruraux                
##  5 34019      Avene        Rural a habitat tres disperse
##  6 34020      Azillanet    Rural a habitat disperse     
##  7 34029      Belarga      Bourgs ruraux                
##  8 34033      Boisseron    Bourgs ruraux                
##  9 34039      Bouzigues    Ceintures urbaines           
## 10 34043      Buzignargues Rural a habitat disperse     
## # ... with 53 more rows
```
…
